3.4/signals.vcd
$date
     Sep 12, 2018       18:36:00
$end

$version
 SystemC 2.3.2-Accellera --- Aug 29 2018 20:34:45
$end

$timescale
     1 ns
$end

$scope module SystemC $end
$var wire    1  aaaaa  clk       $end
$var wire    1  aaaab  valid       $end
$var wire    1  aaaac  ready       $end
$var wire    1  aaaad  reset       $end
$var wire   16  aaaae  data [15:0]  $end
$var wire    2  aaaaf  error [1:0]  $end
$var wire    1  aaaag  stimulus       $end
$var wire    4  aaaah  in_ch(0) [3:0]  $end
$var wire    4  aaaai  in_ch(1) [3:0]  $end
$upscope $end
$enddefinitions  $end

$comment
All initial values are dumped below at time 0 sec = 0 timescale units.
$end

$dumpvars
1aaaaa
0aaaab
0aaaac
0aaaad
b0 aaaae
b0 aaaaf
0aaaag
b0 aaaah
b0 aaaai
$end

#10
0aaaaa

#20
1aaaaa
1aaaac
1aaaag

#30
0aaaaa

#40
1aaaaa
1aaaab

#50
0aaaaa

#60
1aaaaa
b1 aaaae

#70
0aaaaa

#80
1aaaaa
b10 aaaae

#90
0aaaaa

#100
1aaaaa
b11 aaaae

#110
0aaaaa

#120
1aaaaa
b100 aaaae

#130
0aaaaa

#140
1aaaaa
b101 aaaae

#150
0aaaaa

#160
1aaaaa
b110 aaaae

#170
0aaaaa

#180
1aaaaa
b111 aaaae

#190
0aaaaa

#200
1aaaaa
b1000 aaaae

#210
0aaaaa

#220
1aaaaa
b1001 aaaae

#230
0aaaaa

#240
1aaaaa
b1010 aaaae

#250
0aaaaa

#260
1aaaaa
b1011 aaaae

#270
0aaaaa

#280
1aaaaa
b1100 aaaae

#290
0aaaaa

#300
1aaaaa
b1101 aaaae

#310
0aaaaa

#320
1aaaaa
b1110 aaaae

#330
0aaaaa

#340
1aaaaa
b1111 aaaae

#350
0aaaaa

#360
1aaaaa
b10000 aaaae

#370
0aaaaa

#380
1aaaaa
b10001 aaaae

#390
0aaaaa

#400
1aaaaa
b10010 aaaae

#410
0aaaaa

#420
1aaaaa
b10011 aaaae

#430
0aaaaa

#440
1aaaaa
b10100 aaaae

#450
0aaaaa

#460
1aaaaa
b10101 aaaae

#470
0aaaaa

#480
1aaaaa
b10110 aaaae

#490
0aaaaa

#500
1aaaaa
b10111 aaaae

#510
0aaaaa

#520
1aaaaa
b11000 aaaae

#530
0aaaaa

#540
1aaaaa
b11001 aaaae

#550
0aaaaa

#560
1aaaaa
b11010 aaaae

#570
0aaaaa

#580
1aaaaa
b11011 aaaae

#590
0aaaaa

#600
1aaaaa
b11100 aaaae

#610
0aaaaa

#620
1aaaaa
b11101 aaaae

#630
0aaaaa

#640
1aaaaa
b11110 aaaae

#650
0aaaaa

#660
1aaaaa
b11111 aaaae

#670
0aaaaa

#680
1aaaaa
b100000 aaaae

#690
0aaaaa

#700
1aaaaa
b100001 aaaae

#710
0aaaaa

#720
1aaaaa
b100010 aaaae

#730
0aaaaa

#740
1aaaaa
b100011 aaaae

#750
0aaaaa

#760
1aaaaa
b100100 aaaae

#770
0aaaaa

#780
1aaaaa
b100101 aaaae

#790
0aaaaa

#800
1aaaaa
b100110 aaaae

#810
0aaaaa

#820
1aaaaa
0aaaab
0aaaag

#830
0aaaaa

#840
1aaaaa

#850
0aaaaa

#860
1aaaaa

#870
0aaaaa

#880
1aaaaa

#890
0aaaaa

#900
1aaaaa

#910
0aaaaa

#920
1aaaaa

#930
0aaaaa

#940
1aaaaa

#950
0aaaaa

#960
1aaaaa

#970
0aaaaa

#980
1aaaaa

#990
0aaaaa

#1000
1aaaaa

#1010
0aaaaa

#1020
1aaaaa
1aaaab
b0 aaaae
1aaaag

#1030
0aaaaa

#1040
1aaaaa
b1 aaaae

#1050
0aaaaa

#1060
1aaaaa
b10 aaaae

#1070
0aaaaa

#1080
1aaaaa
b11 aaaae

#1090
0aaaaa

#1100
1aaaaa
b100 aaaae

#1110
0aaaaa

#1120
1aaaaa
b101 aaaae

#1130
0aaaaa

#1140
1aaaaa
b110 aaaae

#1150
0aaaaa

#1160
1aaaaa
b111 aaaae

#1170
0aaaaa

#1180
1aaaaa
b1000 aaaae

#1190
0aaaaa

#1200
1aaaaa
b1001 aaaae

#1210
0aaaaa

#1220
1aaaaa
0aaaab
0aaaac
1aaaad

#1230
0aaaaa

#1240
1aaaaa

#1250
0aaaaa

#1260
1aaaaa
1aaaac
0aaaad

#1270
0aaaaa

#1280
1aaaaa
1aaaab
b0 aaaae

#1290
0aaaaa

#1300
1aaaaa
b1 aaaae

#1310
0aaaaa

#1320
1aaaaa
b10 aaaae

#1330
0aaaaa

#1340
1aaaaa
b11 aaaae

#1350
0aaaaa

#1360
1aaaaa
b100 aaaae

#1370
0aaaaa

#1380
1aaaaa
b101 aaaae

#1390
0aaaaa

#1400
1aaaaa
b110 aaaae

#1410
0aaaaa

#1420
1aaaaa
0aaaab
0aaaac
1aaaad

#1430
0aaaaa

#1440
1aaaaa

#1450
0aaaaa

#1460
1aaaaa
1aaaac
0aaaad

#1470
0aaaaa

#1480
1aaaaa
1aaaab
b0 aaaae

#1490
0aaaaa

#1500
1aaaaa
b1 aaaae

#1510
0aaaaa

#1520
1aaaaa
b10 aaaae

#1530
0aaaaa

#1540
1aaaaa
b11 aaaae

#1550
0aaaaa

#1560
1aaaaa
b100 aaaae

#1570
0aaaaa

#1580
1aaaaa
b101 aaaae

#1590
0aaaaa

#1600
1aaaaa
b110 aaaae

#1610
0aaaaa

#1620
1aaaaa
b111 aaaae

#1630
0aaaaa

#1640
1aaaaa
b1000 aaaae

#1650
0aaaaa

#1660
1aaaaa
b1001 aaaae

#1670
0aaaaa

#1680
1aaaaa
b1010 aaaae

#1690
0aaaaa

#1700
1aaaaa
b1011 aaaae

#1710
0aaaaa

#1720
1aaaaa
b1100 aaaae

#1730
0aaaaa

#1740
1aaaaa
b1101 aaaae

#1750
0aaaaa

#1760
1aaaaa
0aaaab
0aaaac
1aaaad

#1770
0aaaaa

#1780
1aaaaa

#1790
0aaaaa

#1800
1aaaaa
1aaaac
0aaaad

#1810
0aaaaa

#1820
1aaaaa
1aaaab
b0 aaaae

#1830
0aaaaa

#1840
1aaaaa
b1 aaaae

#1850
0aaaaa

#1860
1aaaaa
b10 aaaae

#1870
0aaaaa

#1880
1aaaaa
b11 aaaae

#1890
0aaaaa

#1900
1aaaaa
b100 aaaae

#1910
0aaaaa

#1920
1aaaaa
b101 aaaae

#1930
0aaaaa

#1940
1aaaaa
b110 aaaae

#1950
0aaaaa

#1960
1aaaaa
b111 aaaae

#1970
0aaaaa

#1980
1aaaaa
b1000 aaaae

#1990
0aaaaa

#2000
1aaaaa
b1001 aaaae

#2010
0aaaaa

#2020
1aaaaa
b1010 aaaae

#2030
0aaaaa

#2040
1aaaaa
b1011 aaaae

#2050
0aaaaa

#2060
1aaaaa
b1100 aaaae

#2070
0aaaaa

#2080
1aaaaa
b1101 aaaae

#2090
0aaaaa

#2100
1aaaaa
b1110 aaaae

#2110
0aaaaa

#2120
1aaaaa
b1111 aaaae

#2130
0aaaaa

#2140
1aaaaa
b10000 aaaae

#2150
0aaaaa

#2160
1aaaaa
b10001 aaaae

#2170
0aaaaa

#2180
1aaaaa
0aaaab
0aaaac
1aaaad

#2190
0aaaaa

#2200
1aaaaa

#2210
0aaaaa

#2220
1aaaaa
1aaaac
0aaaad

#2230
0aaaaa

#2240
1aaaaa
1aaaab
b0 aaaae

#2250
0aaaaa

#2260
1aaaaa
b1 aaaae

#2270
0aaaaa

#2280
1aaaaa
b10 aaaae

#2290
0aaaaa

#2300
1aaaaa
b11 aaaae

#2310
0aaaaa

#2320
1aaaaa
b100 aaaae

#2330
0aaaaa

#2340
1aaaaa
b101 aaaae

#2350
0aaaaa

#2360
1aaaaa
0aaaab
0aaaac
1aaaad

#2370
0aaaaa

#2380
1aaaaa

#2390
0aaaaa

#2400
1aaaaa
1aaaac
0aaaad

#2410
0aaaaa

#2420
1aaaaa
1aaaab
b0 aaaae

#2430
0aaaaa

#2440
1aaaaa
b1 aaaae

#2450
0aaaaa

#2460
1aaaaa
0aaaab
0aaaac
1aaaad

#2470
0aaaaa

#2480
1aaaaa

#2490
0aaaaa

#2500
1aaaaa
1aaaac

#2510
0aaaaa

#2520
1aaaaa
0aaaac

#2530
0aaaaa

#2540
1aaaaa
1aaaac
0aaaad

#2550
0aaaaa

#2560
1aaaaa
1aaaab
b0 aaaae

#2570
0aaaaa

#2580
1aaaaa
b1 aaaae

#2590
0aaaaa

#2600
1aaaaa
b10 aaaae

#2610
0aaaaa

#2620
1aaaaa
b11 aaaae

#2630
0aaaaa

#2640
1aaaaa
b100 aaaae

#2650
0aaaaa

#2660
1aaaaa
b101 aaaae

#2670
0aaaaa

#2680
1aaaaa
b110 aaaae

#2690
0aaaaa

#2700
1aaaaa
b111 aaaae

#2710
0aaaaa

#2720
1aaaaa
b1000 aaaae

#2730
0aaaaa

#2740
1aaaaa
b1001 aaaae

#2750
0aaaaa

#2760
1aaaaa
b1010 aaaae

#2770
0aaaaa

#2780
1aaaaa
b1011 aaaae

#2790
0aaaaa

#2800
1aaaaa
b1100 aaaae

#2810
0aaaaa

#2820
1aaaaa
0aaaab
0aaaac
1aaaad

#2830
0aaaaa

#2840
1aaaaa

#2850
0aaaaa

#2860
1aaaaa
1aaaac
0aaaad

#2870
0aaaaa

#2880
1aaaaa
1aaaab
b0 aaaae

#2890
0aaaaa

#2900
1aaaaa
0aaaab
0aaaac
1aaaad

#2910
0aaaaa

#2920
1aaaaa

#2930
0aaaaa

#2940
1aaaaa
1aaaac
0aaaad

#2950
0aaaaa

#2960
1aaaaa
1aaaab

#2970
0aaaaa

#2980
1aaaaa
b1 aaaae

#2990
0aaaaa

#3000
1aaaaa
b10 aaaae

#3010
0aaaaa

#3020
1aaaaa
b11 aaaae

#3030
0aaaaa

#3040
1aaaaa
b100 aaaae

#3050
0aaaaa

#3060
1aaaaa
b101 aaaae

#3070
0aaaaa

#3080
1aaaaa
b110 aaaae

#3090
0aaaaa

#3100
1aaaaa
b111 aaaae

#3110
0aaaaa

#3120
1aaaaa
b1000 aaaae

#3130
0aaaaa

#3140
1aaaaa
b1001 aaaae

#3150
0aaaaa

#3160
1aaaaa
b1010 aaaae

#3170
0aaaaa

#3180
1aaaaa
b1011 aaaae

#3190
0aaaaa

#3200
1aaaaa
b1100 aaaae

#3210
0aaaaa

#3220
1aaaaa
b1101 aaaae

#3230
0aaaaa

#3240
1aaaaa
0aaaab
0aaaac
1aaaad

#3250
0aaaaa

#3260
1aaaaa

#3270
0aaaaa

#3280
1aaaaa
1aaaac
0aaaad

#3290
0aaaaa

#3300
1aaaaa
1aaaab
b0 aaaae

#3310
0aaaaa

#3320
1aaaaa
b1 aaaae

#3330
0aaaaa

#3340
1aaaaa
b10 aaaae

#3350
0aaaaa

#3360
1aaaaa
b11 aaaae

#3370
0aaaaa

#3380
1aaaaa
b100 aaaae

#3390
0aaaaa

#3400
1aaaaa
b101 aaaae

#3410
0aaaaa

#3420
1aaaaa
b110 aaaae

#3430
0aaaaa

#3440
1aaaaa
b111 aaaae

#3450
0aaaaa

#3460
1aaaaa
b1000 aaaae

#3470
0aaaaa

#3480
1aaaaa
b1001 aaaae

#3490
0aaaaa

#3500
1aaaaa
b1010 aaaae

#3510
0aaaaa

#3520
1aaaaa
b1011 aaaae

#3530
0aaaaa

#3540
1aaaaa
b1100 aaaae

#3550
0aaaaa

#3560
1aaaaa
b1101 aaaae

#3570
0aaaaa

#3580
1aaaaa
b1110 aaaae

#3590
0aaaaa

#3600
1aaaaa
b1111 aaaae

#3610
0aaaaa

#3620
1aaaaa
b10000 aaaae

#3630
0aaaaa

#3640
1aaaaa
b10001 aaaae

#3650
0aaaaa

#3660
1aaaaa
0aaaab
0aaaac
1aaaad

#3670
0aaaaa

#3680
1aaaaa

#3690
0aaaaa

#3700
1aaaaa
1aaaac
0aaaad

#3710
0aaaaa

#3720
1aaaaa
1aaaab
b0 aaaae

#3730
0aaaaa

#3740
1aaaaa
0aaaab
0aaaac
1aaaad

#3750
0aaaaa

#3760
1aaaaa

#3770
0aaaaa

#3780
1aaaaa
1aaaac
0aaaad

#3790
0aaaaa

#3800
1aaaaa
1aaaab

#3810
0aaaaa

#3820
1aaaaa
b1 aaaae

#3830
0aaaaa

#3840
1aaaaa
0aaaab
0aaaac
1aaaad

#3850
0aaaaa

#3860
1aaaaa

#3870
0aaaaa

#3880
1aaaaa
1aaaac
0aaaad

#3890
0aaaaa

#3900
1aaaaa
1aaaab
b0 aaaae

#3910
0aaaaa

#3920
1aaaaa
b1 aaaae

#3930
0aaaaa

#3940
1aaaaa
b10 aaaae

#3950
0aaaaa

#3960
1aaaaa
b11 aaaae

#3970
0aaaaa

#3980
1aaaaa
0aaaab
0aaaac
1aaaad

